<?xml version="1.0" encoding="UTF-8" standalone="no"?>
<!-- Created with Inkscape (http://www.inkscape.org/) -->

<svg
   xmlns:dc="http://purl.org/dc/elements/1.1/"
   xmlns:cc="http://creativecommons.org/ns#"
   xmlns:rdf="http://www.w3.org/1999/02/22-rdf-syntax-ns#"
   xmlns:svg="http://www.w3.org/2000/svg"
   xmlns="http://www.w3.org/2000/svg"
   xmlns:sodipodi="http://sodipodi.sourceforge.net/DTD/sodipodi-0.dtd"
   xmlns:inkscape="http://www.inkscape.org/namespaces/inkscape"
   width="176.3889mm"
   height="156.63333mm"
   viewBox="0 0 176.3889 156.63333"
   version="1.1"
   id="svg4791"
   inkscape:version="0.92.3 (2405546, 2018-03-11)"
   sodipodi:docname="mosi-vector.svg">
  <defs
     id="defs4785" />
  <sodipodi:namedview
     id="base"
     pagecolor="#ffffff"
     bordercolor="#666666"
     borderopacity="1.0"
     inkscape:pageopacity="0.0"
     inkscape:pageshadow="2"
     inkscape:zoom="0.35"
     inkscape:cx="400"
     inkscape:cy="29.480302"
     inkscape:document-units="mm"
     inkscape:current-layer="layer1"
     showgrid="false"
     inkscape:snap-page="true"
     inkscape:window-width="1280"
     inkscape:window-height="960"
     inkscape:window-x="0"
     inkscape:window-y="27"
     inkscape:window-maximized="1" />
  <metadata
     id="metadata4788">
    <rdf:RDF>
      <cc:Work
         rdf:about="">
        <dc:format>image/svg+xml</dc:format>
        <dc:type
           rdf:resource="http://purl.org/dc/dcmitype/StillImage" />
        <dc:title></dc:title>
      </cc:Work>
    </rdf:RDF>
  </metadata>
  <g
     inkscape:label="Layer 1"
     inkscape:groupmode="layer"
     id="layer1">
    <g
       id="g3954"
       transform="translate(43.196651,-197.53528)">
      <path
         style="fill:#ffffff;fill-opacity:0.00784314;stroke-width:0.35277778"
         d="m 44.997799,354.16861 h -88.19445 v -78.31667 -78.31666 h 88.19445 88.194451 v 78.31666 78.31667 z"
         id="path3964"
         inkscape:connector-curvature="0" />
      <path
         style="fill:#fefefe;stroke-width:0.35277778"
         d="M 44.997799,354.16861 H -4.0383152 v -9.70139 -9.70139 h -9.7013898 -9.701389 v -9.87777 -9.87778 h -9.877779 -9.877778 v -29.28056 -29.28055 h 9.877778 9.877779 v -9.87778 -9.87778 h 9.701389 9.7013898 v -9.70139 -9.70138 h 9.8777784 9.8777788 v -9.87778 -9.87778 h 29.280557 29.280557 v 9.87778 9.87778 h 9.877779 9.877778 v 9.70138 9.70139 h 9.701387 9.70139 v 9.87778 9.87778 h 9.87778 9.87778 v 29.28055 29.28056 h -9.87778 -9.87778 v 9.87778 9.87777 h -9.70139 -9.701387 v 9.70139 9.70139 z"
         id="path3962"
         inkscape:connector-curvature="0" />
      <path
         style="fill:#e4fbc1;stroke-width:0.35277778"
         d="M 44.997799,354.16861 H -4.0383152 v -9.70139 -9.70139 h -9.7013898 -9.701389 v -9.87777 -9.87778 h -9.877779 -9.877778 v -29.28056 -29.28055 h 9.877778 9.877779 v -9.87778 -9.87778 h 9.701389 9.7013898 v -9.70139 -9.70138 h 9.8777784 9.8777788 v -9.87778 -9.87778 h 29.280557 29.280557 v 9.87778 9.87778 h 9.877779 9.877778 v 9.70138 9.70139 h 9.701387 9.70139 v 9.87778 9.87778 h 9.87778 9.87778 v 29.28055 29.28056 h -9.87778 -9.87778 v 9.87778 9.87777 h -9.70139 -9.701387 v 9.70139 9.70139 z M 25.418631,256.44917 h 9.70139 v -9.87778 -9.87778 h -9.70139 -9.701389 v 9.87778 9.87778 z"
         id="path3960"
         inkscape:connector-curvature="0" />
      <path
         style="fill:#9bdfac;stroke-width:0.35277778"
         d="M 44.997799,354.16861 H -4.0383152 v -9.70139 -9.70139 h -9.7013898 -9.701389 v -9.87777 -9.87778 h -9.877779 -9.877778 v -29.28056 -29.28055 h 9.877778 9.877779 v -9.87778 -9.87778 h 9.701389 9.7013898 v -9.70139 -9.70138 h 9.8777784 9.8777788 v -9.87778 -9.87778 h 29.280557 29.280557 v 9.87778 9.87778 h 9.877779 9.877778 v 9.70138 9.70139 h 9.701387 9.70139 v 9.87778 9.87778 h 9.87778 9.87778 v 29.28055 29.28056 h -9.87778 -9.87778 v 9.87778 9.87777 h -9.70139 -9.701387 v 9.70139 9.70139 z m 0,-19.40278 h 9.877778 V 315.18667 295.6075 h 9.70139 9.701389 v -9.87778 -9.87778 h 9.877779 9.877778 v -19.57916 -19.57917 h -9.877778 -9.877779 v -9.70139 -9.70138 H 44.997799 15.717242 v 9.70138 9.70139 H 5.8394632 -4.0383152 v 19.57917 19.57916 h 9.8777784 9.8777788 v 9.87778 9.87778 h 9.701389 9.70139 v 19.57917 19.57916 z"
         id="path3958"
         inkscape:connector-curvature="0" />
      <path
         style="fill:#44aca7;stroke-width:0.35277778"
         d="M 44.997799,354.16861 H -4.0383152 v -9.70139 -9.70139 h -9.7013898 -9.701389 v -9.87777 -9.87778 h -9.877779 -9.877778 v -29.28056 -29.28055 h 19.579168 19.5791678 v 9.70139 9.70138 h 9.8777784 9.8777788 v 9.87778 9.87778 h 9.701389 9.70139 v 19.57917 19.57916 h 9.877778 9.877778 V 315.18667 295.6075 h 9.70139 9.701389 v -9.87778 -9.87778 h 9.877779 9.877778 v -9.70138 -9.70139 h 19.579167 19.57917 v 29.28055 29.28056 h -9.87778 -9.87778 v 9.87778 9.87777 h -9.70139 -9.701387 v 9.70139 9.70139 z M 5.8394632,334.76583 H 15.717242 V 315.18667 295.6075 H 5.8394632 -4.0383152 v -9.87778 -9.87778 h -9.7013898 -9.701389 v 19.57917 19.57917 h 9.701389 9.7013898 v 9.87778 9.87777 z m 78.3166718,0 h 9.877778 v -9.87777 -9.87778 h 9.701387 9.70139 v -19.57917 -19.57917 h -9.70139 -9.701387 v 9.87778 9.87778 h -9.877778 -9.877779 v 19.57917 19.57916 z"
         id="path3956"
         inkscape:connector-curvature="0" />
    </g>
  </g>
</svg>
